{
    "u01cef78e9a5c3936d914b014c251d0e6": true,
    "u028191eb86a1a51d8b7e7c7392eb12c4": true,
    "u0b394d96c49e236ff425e4eb8ed03cde": true,
    "u1ce0cc404d38b6525dbe1cbbb8a021d0": true,
    "u23a22ec0df86e37b6563c5f24a039b2d": true,
    "u23ba7b8d4956cb8b18f12dc841fda56d": true,
    "u252d3f469d232198804774e0ac448061": true,
    "u2eca09f09ff815ce497cecde7877b10b": true,
    "u30133a75a279dbced0b910454eac83de": true,
    "u32d0a47d6887807369a9072c7203e535": true,
    "u3ebc2e04a6d01d9309ead79fc1936555": true,
    "u4562c797bc24761f5a252589e722e4b3": true,
    "u488d2bf36da06355c6bc676ad089b702": true,
    "u4b271e2ab3484dd94da902e0df10869b": true,
    "u518e5be0bc831829bcc9cb76db95e864": true,
    "u5bb0bdeef0c356525161d7d9e569e9bf": true,
    "u6a1cfb5aec8d6a0bd5d1d85a4c0bbfdb": true,
    "u6a40a9e8870603474d78ccb834b47853": true,
    "u742a1fa66e90db3dbdf9f2fe6e406512": true,
    "u8b4c22de6d4a1e18190ae14f76465d66": true,
    "u9a3f19b38e5aa5570579d7a7dee14ed2": true,
    "u9e50c53e630741e08b2b8fdab0fa305e": true,
    "ua1b6c20ea683e15bced9f4db6fb8d265": true,
    "ub31b602c795aa8427e67d35234aaa9f3": true,
    "ub4a22af21670d8c665606503d6c132e9": true,
    "uc9703f6c60c18eaa2e2edc6593764615": true,
    "ucd694a83971df15de4867c72da187c46": true,
    "ud41a0af84aa9f0a44d3664c551522196": true,
    "ud74839f11fea66662e2cdd1bd2b8ef22": true,
    "ue3f9fb85852a2d8d35b9caa7ea36c65f": true,
    "ue61ef19d4cfc38b6537e806260ba859a": true,
    "uf218d1bcc4b9a78cb25354da2432cb00": true,
    "ufd878932f9c25d49ffd0337efd9caf3d": true
}